﻿{
  "Sections": [ "Недвижимость", "Транспорт", "Оборудование", "Бизнес" ],

  "Categories": {
    "Недвижимость": [ "Любая", "Коммерческая", "Квартиры", "Участки", "Дачи, коттеджи", "Гаражи" ],
    "Транспорт": [ "Любой", "Спецтехника", "Автомобили" ],
    "Оборудование": [],
    "Бизнес": []
  }
}