﻿{
  "Недвижимость": [ "category", "region", "price", "keywords" ],
  "Транспорт": [ "category", "region", "year", "price" ],
  "Оборудование": [ "region", "keywords" ],
  "Бизнес": [ "region", "keywords" ],
  "Для дома и дачи": [ "keywords" ],
  "Для бизнеса": [ "keywords" ]
}